<?xml version="1.0" encoding="UTF-8" standalone="no"?>
<svg width="513px" height="428px" viewBox="0 0 513 428" version="1.1" xmlns="http://www.w3.org/2000/svg" xmlns:xlink="http://www.w3.org/1999/xlink" xmlns:sketch="http://www.bohemiancoding.com/sketch/ns">
    <!-- Generator: Sketch 3.0.3 (7892) - http://www.bohemiancoding.com/sketch -->
    <title>25 SMS Bubble B</title>
    <desc>Created with Sketch.</desc>
    <defs></defs>
    <g id="Icon-Megapack" stroke="none" stroke-width="1" fill="none" fill-rule="evenodd" sketch:type="MSPage">
        <g id="Artboard" sketch:type="MSArtboardGroup" transform="translate(-7946.000000, -6643.000000)" fill="#000000">
            <g id="Contact,-Location,-&amp;-Sharing" sketch:type="MSLayerGroup" transform="translate(1941.000000, 3001.000000)">
                <path d="M6261.5,3642.5 C6120.11443,3642.5 6005.5,3731.65377 6005.5,3841.63598 C6005.5,3908.50866 6047.88344,3967.6856 6112.89426,4003.79634 C6094.64084,4044.59674 6070.01692,4068.07019 6072.22692,4069.3759 C6074.87641,4070.93352 6133.21119,4057.86799 6170.94861,4027.93735 C6199.10099,4036.22086 6229.61824,4040.76776 6261.5,4040.76776 C6402.88557,4040.76776 6517.5,3951.61399 6517.5,3841.63598 C6517.5,3731.65377 6402.88557,3642.5 6261.5,3642.5 L6261.5,3642.5 Z M6151,3877.5 C6130.83949,3877.5 6114.5,3861.15634 6114.5,3841 C6114.5,3820.83949 6130.83949,3804.5 6151,3804.5 C6171.16051,3804.5 6187.5,3820.83949 6187.5,3841 C6187.5,3861.15634 6171.16051,3877.5 6151,3877.5 L6151,3877.5 Z M6264,3877.5 C6243.83949,3877.5 6227.5,3861.15634 6227.5,3841 C6227.5,3820.83949 6243.83949,3804.5 6264,3804.5 C6284.16051,3804.5 6300.5,3820.83949 6300.5,3841 C6300.5,3861.15634 6284.16051,3877.5 6264,3877.5 L6264,3877.5 Z M6377,3877.5 C6356.83949,3877.5 6340.5,3861.15634 6340.5,3841 C6340.5,3820.83949 6356.83949,3804.5 6377,3804.5 C6397.16051,3804.5 6413.5,3820.83949 6413.5,3841 C6413.5,3861.15634 6397.16051,3877.5 6377,3877.5 L6377,3877.5 Z" id="25-SMS-Bubble-B" sketch:type="MSShapeGroup"></path>
            </g>
        </g>
    </g>
</svg>